{
  "rows": [
    {
      "companyName": "Antofy agency",
      "companyMail": "antofyagy@yopmail.com",
      "companyAddress1": "Shahad Station Road",
      "companyAddress2": "Opp Baba Medical Store",
      "companyAddress3": "Ulhasnagar",
      "companyAddress4": "Mumbai",
      "postCode": 421001,
      "Logo": "YES",
      "AttachLogo": "1ps-logo.png",
      "invAddSameAsCmpAdd": "YES",
      "invoiceAddress1": "Shahad Station Road",
      "invoiceAddress2": "Opp Baba Medical Store",
      "invoiceAddress3": "Ulhasnagar",
      "invoiceAddress4": "Mumbai",
      "invoicePostCode": 421001,
      "vatRegistrationNumber": 100200300,
      "registrationNumber": 807060,
      "agyWbURL": "www.antofyagency.com",
      "contactNumber": "044-987654",
      "agyuserFirstName": "UI1",
      "agyuserLastName": "Pavithra",
      "invContactNumber": 741852296,
      "agyuserMail": "testing.1ps.dev+6@gmail.com",
      "activeStatus": "Yes",
      "marketing": "Yes",
      "bankNameHolder": "HDFC",
      "accountHolderNameHolder": "Pavithra",
      "accountNumberHolder": "2054 3698 5487",
      "sortCodeHolder": 56789,
      "assignmentNoice": 25,
      "ibanNumberHolder": "ABC001",
      "swiftCodeHolder": 3020,
      "onePsServiceCharge": 4,
      "paidWhenPaidFee": 5,
      "permFee": 6,
      "primaryStaff": "1PS Admin",
      "onboardStaffPrimary": "Dinesh Lakshman",
      "creditCtrlPrimary": "first1 last1",
      "secondaryStaff": "first57 last57",
      "onboardStaffSecondary": "first59 last59",
      "creditCtrlSecondary": "Meg Adams",
      "lvlOperationsupport": "High",
      "lvlcollectionReport": "Medium"
    },
    {
      "companyName": "Arul agency  nov18",
      "companyMail": "arulnov18agency@yopmail.com",
      "companyAddress1": "St Bride's House",
      "companyAddress2": "two",
      "companyAddress3": "three",
      "companyAddress4": 4,
      "postCode": 258258,
      "Logo": "NO",
      "invAddSameAsCmpAdd": "YES",
      "vatRegistrationNumber": 505050,
      "registrationNumber": "123456ASD",
      "agyWbURL": "www.arulagency.com",
      "contactNumber": 116455,
      "agyuserFirstName": "UI1",
      "agyuserLastName": "ARULQA",
      "invContactNumber": 245897,
      "agyuserMail": "ui1arulqa24@yopmail.com",
      "activeStatus": "Yes",
      "marketing": "Yes",
      "bankNameHolder": "HDFC",
      "accountHolderNameHolder": "ARUL",
      "accountNumberHolder": 10203040,
      "sortCodeHolder": 555,
      "assignmentNoice": 25,
      "ibanNumberHolder": "154654 4445",
      "swiftCodeHolder": "BBMEAEADXXX",
      "onePsServiceCharge": 5,
      "paidWhenPaidFee": 4,
      "permFee": 8,
      "primaryStaff": "first59 last59",
      "onboardStaffPrimary": "first57 last57",
      "creditCtrlPrimary": "1PS Admin",
      "secondaryStaff": "first4 last4",
      "onboardStaffSecondary": "first10 last10",
      "creditCtrlSecondary": "Bella Topley (1PS)",
      "lvlOperationsupport": "Low",
      "lvlcollectionReport": "Medium"
    },
    {
      "companyName": "Agency A18",
      "companyMail": "agencya18@yopmail.com",
      "companyAddress1": "one",
      "companyAddress2": "two",
      "companyAddress3": "three",
      "companyAddress4": 4,
      "postCode": 546656,
      "Logo": "NO",
      "invAddSameAsCmpAdd": "YES",
      "vatRegistrationNumber": 32456462,
      "registrationNumber": 3665,
      "agyWbURL": "www.agency,in",
      "contactNumber": 506506,
      "agyuserFirstName": "UI1",
      "agyuserLastName": "Arul",
      "invContactNumber": 5454564654,
      "agyuserMail": "aruljul21@yopmail.com",
      "activeStatus": "Yes",
      "marketing": "No",
      "bankNameHolder": "HDFC",
      "accountHolderNameHolder": "Arul",
      "accountNumberHolder": 123456,
      "sortCodeHolder": 32565,
      "assignmentNoice": 20,
      "ibanNumberHolder": "1644 465464",
      "swiftCodeHolder": "BBMEAEADXXX",
      "onePsServiceCharge": 2,
      "paidWhenPaidFee": 6,
      "permFee": 6,
      "primaryStaff": "1PS Admin",
      "onboardStaffPrimary": "first4 last4",
      "creditCtrlPrimary": "Ramesh Raj",
      "secondaryStaff": "Revathi (1PS)",
      "onboardStaffSecondary": "Simon Cole",
      "creditCtrlSecondary": "Beth Higbee",
      "lvlOperationsupport": "Low",
      "lvlcollectionReport": "High"
    }
  ]
}