{
  "rows": [
    {
      "firstName": "Test",
      "lastName": "Contractor1",
      "eMail": "testing.1ps.dev+16@gmail.com",
      "mobileNumber": "044-123456",
      "activeStatus": "Yes",
      "companyLimited": "Limited Company",
      "umbrellaCompanyName": "umbrella",
      "lmCompanyName": "Test limited company",
      "lmPaymentterms": "14",
      "companyAddress1": "St Bride's House",
      "companyAddress2": "10 Salisbury Square",
      "companyAddress3": "London",
      "postCode": 654654,
      "invAddSameAsCmpAdd": "YES",
      "invoiceAddress1": "St Bride's House",
      "invoiceAddress2": "10 Salisbury Square",
      "invoiceAddress3": "London",
      "invoiceAddress4": "London",
      "invoicePostCode": 654654,
      "registrationNumber": "90807060",
      "vatRegistrationNumber": 10203040,
      "wbURL": "www.limitedcompany.com",
      "Logo": "YES",
      "AttachLogo": "1ps-logo.png",
      "currency": "inr",
      "tax": 1,
      "bankNameHolder": "HSBC",
      "accountHolderNameHolder": "Test contractor1",
      "accountNumberHolder": 60504030,
      "sortCodeHolder": 1357,
      "ibanNumberHolder": "654987 321564",
      "swiftCodeHolder": 123456
    },
    {
      "firstName": "Frank K.",
      "lastName": "Sotelo",
      "eMail": "testing.1ps.dev+30@gmail.com",
      "mobileNumber": 8064972514,
      "activeStatus": "Yes",
      "companyLimited": "Limited Company",
      "lmCompanyName": "Arul limited company",
      "lmPaymentterms": "28",
      "companyAddress1": "42  nd Floor Harharwala Bldg",
      "companyAddress2": "  A/b Light Kiran Showroom Lohar Chawl",
      "companyAddress3": "Mumbai",
      "companyAddress4": "Chennai",
      "postCode": 456456,
      "invAddSameAsCmpAdd": "NO",
      "invoiceAddress1": "42  nd Floor Harharwala Bldg",
      "invoiceAddress2": "  A/b Light Kiran Showroom Lohar Chawl",
      "invoiceAddress3": "Mumbai",
      "invoiceAddress4": "Chennai",
      "invoicePostCode": 456456,
      "registrationNumber": 7080904060,
      "vatRegistrationNumber": 100200300,
      "wbURL": "www.arullimitedcompany.com",
      "Logo": "NO",
      "currency": "EUR",
      "tax": 2,
      "bankNameHolder": "SBI",
      "accountHolderNameHolder": "Frank K",
      "accountNumberHolder": 70809070890,
      "sortCodeHolder": 456,
      "ibanNumberHolder": "456ASDF123",
      "swiftCodeHolder": 98765
    },
    {
      "firstName": "Ellie",
      "lastName": "Holmes",
      "eMail": "testing.1ps.dev+31@gmail.com",
      "mobileNumber": 7080655454,
      "activeStatus": "Yes",
      "companyLimited": "Umbrella Company",
      "umbrellaCompanyName": "Antofy Umbrella"
    },
    {
      "firstName": "Kirti",
      "lastName": "Bose",
      "eMail": "testing.1ps.dev+32@gmail.com",
      "mobileNumber": "044-654654",
      "activeStatus": "No",
      "companyLimited": "Umbrella Company",
      "umbrellaCompanyName": "Antofy Umbrella"
    },
    {
      "firstName": "Arul",
      "lastName": "lastname1",
      "eMail": "testing.1ps.dev+33@gmail.com",
      "mobileNumber": 7080655454,
      "activeStatus": "Yes",
      "companyLimited": "Umbrella Company",
      "umbrellaCompanyName": "Umbrella - Zynaty"
    },
    {
      "firstName": "Priya",
      "lastName": "lastname2",
      "eMail": "testing.1ps.dev+34@gmail.com",
      "mobileNumber": 6544644,
      "activeStatus": "No",
      "companyLimited": "Umbrella Company",
      "umbrellaCompanyName": "Umbrella - Zynaty"
    }
  ]
}